{
  "id": "/ionate-hadoop-master-node",
  "cpus": 4.0,
  "mem": 8192,
  "disk": 0,
  "instances": 1,
  "constraints": [
    [
      "hostname",
      "LIKE",
      "192.168.70.148"
    ]
  ],
  "acceptedResourceRoles": [
    "*"
  ],
  "container": {
    "type": "DOCKER",
    "docker": {
      "forcePullImage": true,
      "image": "dockerhub.ionate.io:5000/ionate-hadoop-node:2.9.1",
      "parameters": [],
      "privileged": true
    },
    "volumes": [
      {
        "hostPath": "/mnt/shared/apps",
        "containerPath": "/mnt/shared/apps",
        "mode": "RW"
      }
    ],
    "portMappings": []
  },
  "env": {
    "DOCKER_HADOOP_NODE_ROLE": "MASTER",
    "DOCKER_HADOOP_MASTER": "ionate-hadoop-master-node.marathon.internal.ionate.io",
    "DOCKER_HADOOP_SLAVES": "ionate-hadoop-master-node.marathon.internal.ionate.io ionate-hadoop-slave-0-node.marathon.slave.internal.ionate.io ionate-hadoop-slave-1-node.marathon.slave.internal.ionate.io",
    "SSH_PORT_OVERLAY": "20022",
    "HADOOP_SSH_OPTS": "-p 20022",
    "HADOOP_HOSTNAME": "ionate-hadoop-master-node.marathon.internal.ionate.io"
  },
  "networks": [
    {
      "mode": "host"
    }
  ],
  "portDefinitions": []
}