{
  "id": "/hadoop-slave-0",
  "cpus": 1.0,
  "mem": 1536,
  "disk": 0,
  "instances": 1,
  "constraints": [
    [
      "hostname",
      "LIKE",
      "192.168.50.10"
    ]
  ],
  "acceptedResourceRoles": [
    "*"
  ],
  "container": {
    "type": "DOCKER",
    "docker": {
      "forcePullImage": true,
      "image": "192.168.50.10:5000/hadoop-node:2.9.1",
      "parameters": [],
      "privileged": true
    },
    "volumes": [
      {
        "hostPath": "/mnt/shared/apps",
        "containerPath": "/mnt/shared/apps",
        "mode": "RW"
      }
    ],
    "portMappings": []
  },
  "env": {
    "DOCKER_HADOOP_NODE_ROLE": "SLAVE",
    "DOCKER_HADOOP_MASTER": "hadoop-master.marathon.slave.mesos",
    "DOCKER_HADOOP_SLAVES": "hadoop-master.marathon.slave.mesos hadoop-slave-0.marathon.slave.mesos",
    "SSH_PORT_OVERLAY": "20022",
    "HADOOP_SSH_OPTS": "-p 20022",
    "HADOOP_HOSTNAME": "hadoop-slave-0.marathon.slave.mesos"
  },
  "networks": [
    {
      "mode": "host"
    }
  ],
  "portDefinitions": []
}