{
  "id": "/hive",
  "cpus": 0.5,
  "mem": 1024,
  "disk": 0,
  "instances": 1,
  "constraints": [
    [
      "hostname",
      "LIKE",
      "192.168.50.20"
    ]
  ],
  "acceptedResourceRoles": [
    "*"
  ],
  "container": {
    "type": "DOCKER",
    "docker": {
      "forcePullImage": true,
      "image": "192.168.50.10:5000/hive:2.3.3",
      "parameters": [],
      "privileged": true
    },
    "volumes": [
      {
        "hostPath": "/mnt/shared/apps",
        "containerPath": "/mnt/shared/apps",
        "mode": "RO"
      },
      {
        "hostPath": "/mnt/shared/apps/hive/input",
        "containerPath": "/mnt/shared/apps/hive/input",
        "mode": "RO"
      }
    ],
    "portMappings": [
      {
        "containerPort": 10000,
        "hostPort": 31100,
        "labels": {},
        "protocol": "tcp",
        "servicePort": 31100
      },
      {
        "containerPort": 10002,
        "hostPort": 31102,
        "labels": {},
        "protocol": "tcp",
        "servicePort": 31102
      }
    ]
  },
  "env": {
    "HADOOP_HOME": "/mnt/shared/apps/hadoop",
    "MYSQL_OWNER": "root",
    "MYSQL_PWD": "mesos",
    "MYSQL_URL": "mysql.marathon.slave.mesos:3306"
  },
  "networks": [
    {
      "mode": "container/bridge"
    }
  ],
  "portDefinitions": []
}